analyse_jesse
…
arrange(res, estimate)

## # A tibble: 21 × 5
##    term               estimate std.error statistic p.value
##    <chr>                 <dbl>     <dbl>     <dbl>   <dbl>
##  1 (Intercept)        -1.25      0.518     -2.41    0.0171
##  2 interesse_duitsnee -0.183     0.116     -1.58    0.116 
##  3 fam_kennisnee      -0.0791    0.122     -0.646   0.519 
##  4 d_grens             0.00212   0.00103    2.05    0.0421
##  5 werk                0.0114    0.140      0.0815  0.935 
##  6 boodschappen        0.0303    0.152      0.199   0.843 
##  7 interesse_taalnee   0.0308    0.123      0.250   0.803 
##  8 vakantie            0.0495    0.115      0.431   0.667 
##  9 woonwerk_duitsnee   0.0852    0.211      0.404   0.687 
## 10 overig              0.142     0.154      0.923   0.358 
## # ℹ 11 more rows
…
